Hi there!

---------------------------------------------------------------------------------------------

  * You can download a lot of Videohive projects on our website: ---  https://hunterae.com

  * You can download any PREMIUM HTML Template from our project: ---  https://htmldownload.com

  * Everything for WordPress, Joomla, Opencart, Magento and more: --  https://cmsdude.org

  * A lot of SEO Tools are waiting for you, test your website:   ---  https://mainseotools.com

  * Our project where everybody can donate money for items:      ---  https://cmsdude.club

---------------------------------------------------------------------------------------------

Will be glad to see you!

-------------------------------
-                             -
-                             -
-        Cmsdude.org          -
-                             -
- Premium WordPress Templates -
-      Joomla Templates       -
-      Magento Templates      -
-      Opencart, Plugins      -
-    and much, much more!!    -
-                             -
-                             -
-------------------------------
